
{"photos":{"page":1,"pages":21715,"perpage":20,"total":"434300","photo":[{"id":"29972022158","owner":"158020196@N03","secret":"70ac2216ba","server":"1835","farm":2,"title":"Makeup Tips & Tutorials : Golden Smokey Eye Tutorial - #eyetutorials #golden #smokeyeye #eyemakeup #eyesha...","ispublic":1,"isfriend":0,"isfamily":0},{"id":"42033441540","owner":"101432910@N03","secret":"2c01c088a1","server":"1837","farm":2,"title":"DSC_0137","ispublic":1,"isfriend":0,"isfamily":0},{"id":"42938369065","owner":"101432910@N03","secret":"86699ee4ab","server":"857","farm":1,"title":"DSC_0251","ispublic":1,"isfriend":0,"isfamily":0},{"id":"42938358645","owner":"154483640@N05","secret":"db7f597f21","server":"930","farm":1,"title":"37665988_1869528233093604_944936729750536192_n","ispublic":1,"isfriend":0,"isfamily":0},{"id":"43793534822","owner":"75812391@N03","secret":"ceb7a74724","server":"1836","farm":2,"title":"","ispublic":1,"isfriend":0,"isfamily":0},{"id":"43124502604","owner":"62605756@N03","secret":"149d5b1c6a","server":"861","farm":1,"title":"Kristoff playing with Blue ball","ispublic":1,"isfriend":0,"isfamily":0},{"id":"42033410070","owner":"162870974@N07","secret":"b8a09a537d","server":"1774","farm":2,"title":"Hair Style Ideas  : Medium Length Hairstyles to Rock this Spring \u2605 See more: glaminati.com\/...","ispublic":1,"isfriend":0,"isfamily":0},{"id":"42033408970","owner":"159292834@N08","secret":"e3c52f6d29","server":"937","farm":1,"title":"Hair Style Ideas  : Medium Length Hairstyles to Rock this Spring \u2605 See more: glaminati.com\/...","ispublic":1,"isfriend":0,"isfamily":0},{"id":"28905359497","owner":"117065695@N07","secret":"1b54475939","server":"1771","farm":2,"title":"IMG_6704 copy","ispublic":1,"isfriend":0,"isfamily":0},{"id":"43124490094","owner":"154867010@N02","secret":"cef4c81c87","server":"1839","farm":2,"title":"Quotes About Love : My Advice to a New Bride","ispublic":1,"isfriend":0,"isfamily":0},{"id":"43841854831","owner":"141290432@N06","secret":"53349679d2","server":"1811","farm":2,"title":"wp_000069_38626294010_o","ispublic":1,"isfriend":0,"isfamily":0},{"id":"43841846071","owner":"132231308@N03","secret":"9b3fa1f98e","server":"1773","farm":2,"title":"","ispublic":1,"isfriend":0,"isfamily":0},{"id":"29971956468","owner":"141290432@N06","secret":"1fbc161d47","server":"1833","farm":2,"title":"wp_000071_38626287640_o","ispublic":1,"isfriend":0,"isfamily":0},{"id":"42938331455","owner":"153897065@N05","secret":"e2c9078527","server":"1777","farm":2,"title":"2018-08-04_09-20-21","ispublic":1,"isfriend":0,"isfamily":0},{"id":"43124476994","owner":"110174665@N07","secret":"7749ba0dae","server":"1795","farm":2,"title":"DSC_8450","ispublic":1,"isfriend":0,"isfamily":0},{"id":"42033376570","owner":"110174665@N07","secret":"b52e8d2797","server":"1820","farm":2,"title":"DSC_8452","ispublic":1,"isfriend":0,"isfamily":0},{"id":"42033375730","owner":"110174665@N07","secret":"f127c18e23","server":"933","farm":1,"title":"DSC_8454","ispublic":1,"isfriend":0,"isfamily":0},{"id":"42033375040","owner":"110174665@N07","secret":"2781b2d49c","server":"1815","farm":2,"title":"DSC_8456","ispublic":1,"isfriend":0,"isfamily":0},{"id":"42938318145","owner":"110174665@N07","secret":"93c29de7c6","server":"1833","farm":2,"title":"DSC_8464","ispublic":1,"isfriend":0,"isfamily":0},{"id":"43793498022","owner":"110174665@N07","secret":"e894a9fa3d","server":"860","farm":1,"title":"DSC_8493","ispublic":1,"isfriend":0,"isfamily":0}]},"stat":"ok"}
